Chapter 4 機器學習：消費者投訴分類系統 | 呂珣瑄 數據分析作品集
…
brier_class（Brier 分數）：
平均值：0.337。
測量模型預測的概率質量，值越小越好。
對於二元分類，0.337 表示模型的預測概率還算穩定，但還可以優化。

roc_auc（ROC 曲線下面積）：
平均值：0.763（76.3%）。
表示模型區分正類（Credit）和負類（Other）的能力，值越接近 1 越好。模型對正負類別的區分能力優於隨機猜測（0.5）。

collect_predictions(nb_rs) # 收集預測

## # A tibble: 2,930 × 7
##    .pred_class .pred_Credit .pred_Other id      .row product .config            
##    <fct>              <dbl>       <dbl> <chr>  <int> <fct>   <chr>              
##  1 Credit          1.00e+ 0    1.05e-14 Fold01    16 Credit  Preprocessor1_Mode…
##  2 Credit          1.00e+ 0    4.42e- 6 Fold01    31 Credit  Preprocessor1_Mode…
##  3 Credit          1   e+ 0    6.23e-72 Fold01    33 Credit  Preprocessor1_Mode…
##  4 Credit          1   e+ 0    3.94e-39 Fold01    41 Credit  Preprocessor1_Mode…
##  5 Credit          1   e+ 0    2.60e-35 Fold01    42 Credit  Preprocessor1_Mode…
##  6 Credit          1   e+ 0    2.32e-17 Fold01    47 Credit  Preprocessor1_Mode…
##  7 Other           2.73e-16    1   e+ 0 Fold01    51 Credit  Preprocessor1_Mode…
##  8 Credit          1   e+ 0    4.22e-52 Fold01    56 Credit  Preprocessor1_Mode…
##  9 Credit          1   e+ 0    1.63e-29 Fold01    58 Credit  Preprocessor1_Mode…
## 10 Credit          1.00e+ 0    3.35e-15 Fold01    74 Credit  Preprocessor1_Mode…
## # ℹ 2,920 more rows
…
collect_metrics(tune_rs)

## # A tibble: 90 × 7
##     penalty .metric     .estimator  mean     n std_err .config              
##       <dbl> <chr>       <chr>      <dbl> <int>   <dbl> <chr>                
##  1 1   e-10 accuracy    binary     0.805    10 0.00713 Preprocessor1_Model01
##  2 1   e-10 brier_class binary     0.182    10 0.00601 Preprocessor1_Model01
##  3 1   e-10 roc_auc     binary     0.861    10 0.00589 Preprocessor1_Model01
##  4 2.21e-10 accuracy    binary     0.805    10 0.00713 Preprocessor1_Model02
##  5 2.21e-10 brier_class binary     0.182    10 0.00601 Preprocessor1_Model02
##  6 2.21e-10 roc_auc     binary     0.861    10 0.00589 Preprocessor1_Model02
##  7 4.89e-10 accuracy    binary     0.805    10 0.00713 Preprocessor1_Model03
##  8 4.89e-10 brier_class binary     0.182    10 0.00601 Preprocessor1_Model03
##  9 4.89e-10 roc_auc     binary     0.861    10 0.00589 Preprocessor1_Model03
## 10 1.08e- 9 accuracy    binary     0.805    10 0.00713 Preprocessor1_Model04
## # ℹ 80 more rows
…
fitted_lasso <- fit(final_lasso, dat_train)

fitted_lasso |>
  extract_fit_parsnip() |>
  tidy() |>
  mutate(term = str_remove(term, "tfidf_consumer_complaint_narrative_")) |>
  arrange(-estimate)

## # A tibble: 1,001 × 3
##    term       estimate penalty
##    <chr>         <dbl>   <dbl>
##  1 received       7.77  0.0189
##  2 situation      6.45  0.0189
##  3 money          6.37  0.0189
##  4 debt           5.37  0.0189
##  5 bank           4.65  0.0189
##  6 funds          4.53  0.0189
##  7 pay            4.47  0.0189
##  8 statements     4.29  0.0189
##  9 customer       4.27  0.0189
## 10 interest       3.88  0.0189
## # ℹ 991 more rows

fitted_lasso |>
  extract_fit_parsnip() |>
  tidy() |>
  mutate(term = str_remove(term, "tfidf_consumer_complaint_narrative_")) |>
  arrange(estimate)

## # A tibble: 1,001 × 3
##    term        estimate penalty
##    <chr>          <dbl>   <dbl>
##  1 requisite     -21.1   0.0189
##  2 equifax       -11.7   0.0189
##  3 reporting     -10.9   0.0189
##  4 experian      -10.7   0.0189
##  5 report        -10.2   0.0189
##  6 credit         -9.69  0.0189
##  7 reported       -5.45  0.0189
##  8 fcra           -5.34  0.0189
##  9 information    -5.31  0.0189
## 10 transunion     -5.31  0.0189
## # ℹ 991 more rows
